                 PyBank Project                         
               Financial Analysis              4/3/21   
 _________________________________________________________
                                                         
Total Months                   : $86,       
Total Months                   : $38382578,
Average  Change                : $-2315.12,
Greatest Increase in Profits   : Feb-2012   $1926159,
Greatest Decrease in Profits   : Sep-2013,   $-2196167
                                                         
                                                         
                                                         
